client runtime = 1.168480 seconds
client runtime = 1.019536 seconds
client runtime = 1.028758 seconds
client runtime = 0.986987 seconds
client runtime = 0.961801 seconds
client runtime = 0.999222 seconds
client runtime = 1.015791 seconds
client runtime = 1.029131 seconds
client runtime = 0.984375 seconds
client runtime = 1.049546 seconds
